^C:\USERS\GUILLAUME\ONEDRIVE - CFAI ALSACE\CPP\RENDU_CPP\PROJETJEUXCPP\PROJETJEUXCPP\DEBUG\BOARD.OBJ|C:\USERS\GUILLAUME\ONEDRIVE - CFAI ALSACE\CPP\RENDU_CPP\PROJETJEUXCPP\PROJETJEUXCPP\DEBUG\BOARDCONNECT4.OBJ|C:\USERS\GUILLAUME\ONEDRIVE - CFAI ALSACE\CPP\RENDU_CPP\PROJETJEUXCPP\PROJETJEUXCPP\DEBUG\BOARDTICTACTOE.OBJ|C:\USERS\GUILLAUME\ONEDRIVE - CFAI ALSACE\CPP\RENDU_CPP\PROJETJEUXCPP\PROJETJEUXCPP\DEBUG\CASEOFBOARD.OBJ|C:\USERS\GUILLAUME\ONEDRIVE - CFAI ALSACE\CPP\RENDU_CPP\PROJETJEUXCPP\PROJETJEUXCPP\DEBUG\CELLCHOICE.OBJ|C:\USERS\GUILLAUME\ONEDRIVE - CFAI ALSACE\CPP\RENDU_CPP\PROJETJEUXCPP\PROJETJEUXCPP\DEBUG\DRAWING.OBJ|C:\USERS\GUILLAUME\ONEDRIVE - CFAI ALSACE\CPP\RENDU_CPP\PROJETJEUXCPP\PROJETJEUXCPP\DEBUG\DRAWSQUAREBOARD.OBJ|C:\USERS\GUILLAUME\ONEDRIVE - CFAI ALSACE\CPP\RENDU_CPP\PROJETJEUXCPP\PROJETJEUXCPP\DEBUG\JEU.OBJ|C:\USERS\GUILLAUME\ONEDRIVE - CFAI ALSACE\CPP\RENDU_CPP\PROJETJEUXCPP\PROJETJEUXCPP\DEBUG\PLACEMENT.OBJ|C:\USERS\GUILLAUME\ONEDRIVE - CFAI ALSACE\CPP\RENDU_CPP\PROJETJEUXCPP\PROJETJEUXCPP\DEBUG\PLAYER.OBJ|C:\USERS\GUILLAUME\ONEDRIVE - CFAI ALSACE\CPP\RENDU_CPP\PROJETJEUXCPP\PROJETJEUXCPP\DEBUG\PLAYERACTIONS.OBJ|C:\USERS\GUILLAUME\ONEDRIVE - CFAI ALSACE\CPP\RENDU_CPP\PROJETJEUXCPP\PROJETJEUXCPP\DEBUG\PLAYERCONNECT4.OBJ|C:\USERS\GUILLAUME\ONEDRIVE - CFAI ALSACE\CPP\RENDU_CPP\PROJETJEUXCPP\PROJETJEUXCPP\DEBUG\PLAYERTICTACTOE.OBJ|C:\USERS\GUILLAUME\ONEDRIVE - CFAI ALSACE\CPP\RENDU_CPP\PROJETJEUXCPP\PROJETJEUXCPP\DEBUG\TOKEN.OBJ|C:\USERS\GUILLAUME\ONEDRIVE - CFAI ALSACE\CPP\RENDU_CPP\PROJETJEUXCPP\PROJETJEUXCPP\DEBUG\TOKENCONNECT4.OBJ|C:\USERS\GUILLAUME\ONEDRIVE - CFAI ALSACE\CPP\RENDU_CPP\PROJETJEUXCPP\PROJETJEUXCPP\DEBUG\TOKENTICTACTOC.OBJ|C:\USERS\GUILLAUME\ONEDRIVE - CFAI ALSACE\CPP\RENDU_CPP\PROJETJEUXCPP\PROJETJEUXCPP\DEBUG\TOKENTICTACTOE.OBJ
C:\PROGRAM FILES (X86)\WINDOWS KITS\10\LIB\10.0.17763.0\UM\X86\KERNEL32.LIB
C:\PROGRAM FILES (X86)\WINDOWS KITS\10\LIB\10.0.17763.0\UM\X86\USER32.LIB
C:\PROGRAM FILES (X86)\WINDOWS KITS\10\LIB\10.0.17763.0\UM\X86\GDI32.LIB
C:\PROGRAM FILES (X86)\WINDOWS KITS\10\LIB\10.0.17763.0\UM\X86\WINSPOOL.LIB
C:\PROGRAM FILES (X86)\WINDOWS KITS\10\LIB\10.0.17763.0\UM\X86\COMDLG32.LIB
C:\PROGRAM FILES (X86)\WINDOWS KITS\10\LIB\10.0.17763.0\UM\X86\ADVAPI32.LIB
C:\PROGRAM FILES (X86)\WINDOWS KITS\10\LIB\10.0.17763.0\UM\X86\SHELL32.LIB
C:\PROGRAM FILES (X86)\WINDOWS KITS\10\LIB\10.0.17763.0\UM\X86\OLE32.LIB
C:\PROGRAM FILES (X86)\WINDOWS KITS\10\LIB\10.0.17763.0\UM\X86\OLEAUT32.LIB
C:\PROGRAM FILES (X86)\WINDOWS KITS\10\LIB\10.0.17763.0\UM\X86\UUID.LIB
C:\PROGRAM FILES (X86)\WINDOWS KITS\10\LIB\10.0.17763.0\UM\X86\ODBC32.LIB
C:\PROGRAM FILES (X86)\WINDOWS KITS\10\LIB\10.0.17763.0\UM\X86\ODBCCP32.LIB
C:\USERS\GUILLAUME\ONEDRIVE - CFAI ALSACE\CPP\RENDU_CPP\PROJETJEUXCPP\PROJETJEUXCPP\DEBUG\BOARD.OBJ
C:\USERS\GUILLAUME\ONEDRIVE - CFAI ALSACE\CPP\RENDU_CPP\PROJETJEUXCPP\PROJETJEUXCPP\DEBUG\BOARDCONNECT4.OBJ
C:\USERS\GUILLAUME\ONEDRIVE - CFAI ALSACE\CPP\RENDU_CPP\PROJETJEUXCPP\PROJETJEUXCPP\DEBUG\BOARDTICTACTOE.OBJ
C:\USERS\GUILLAUME\ONEDRIVE - CFAI ALSACE\CPP\RENDU_CPP\PROJETJEUXCPP\PROJETJEUXCPP\DEBUG\CASEOFBOARD.OBJ
C:\USERS\GUILLAUME\ONEDRIVE - CFAI ALSACE\CPP\RENDU_CPP\PROJETJEUXCPP\PROJETJEUXCPP\DEBUG\CELLCHOICE.OBJ
C:\USERS\GUILLAUME\ONEDRIVE - CFAI ALSACE\CPP\RENDU_CPP\PROJETJEUXCPP\PROJETJEUXCPP\DEBUG\DRAWING.OBJ
C:\USERS\GUILLAUME\ONEDRIVE - CFAI ALSACE\CPP\RENDU_CPP\PROJETJEUXCPP\PROJETJEUXCPP\DEBUG\DRAWSQUAREBOARD.OBJ
C:\USERS\GUILLAUME\ONEDRIVE - CFAI ALSACE\CPP\RENDU_CPP\PROJETJEUXCPP\PROJETJEUXCPP\DEBUG\JEU.OBJ
C:\USERS\GUILLAUME\ONEDRIVE - CFAI ALSACE\CPP\RENDU_CPP\PROJETJEUXCPP\PROJETJEUXCPP\DEBUG\PLACEMENT.OBJ
C:\USERS\GUILLAUME\ONEDRIVE - CFAI ALSACE\CPP\RENDU_CPP\PROJETJEUXCPP\PROJETJEUXCPP\DEBUG\PLAYER.OBJ
C:\USERS\GUILLAUME\ONEDRIVE - CFAI ALSACE\CPP\RENDU_CPP\PROJETJEUXCPP\PROJETJEUXCPP\DEBUG\PLAYERACTIONS.OBJ
C:\USERS\GUILLAUME\ONEDRIVE - CFAI ALSACE\CPP\RENDU_CPP\PROJETJEUXCPP\PROJETJEUXCPP\DEBUG\PLAYERCONNECT4.OBJ
C:\USERS\GUILLAUME\ONEDRIVE - CFAI ALSACE\CPP\RENDU_CPP\PROJETJEUXCPP\PROJETJEUXCPP\DEBUG\PLAYERTICTACTOE.OBJ
C:\USERS\GUILLAUME\ONEDRIVE - CFAI ALSACE\CPP\RENDU_CPP\PROJETJEUXCPP\PROJETJEUXCPP\DEBUG\TOKEN.OBJ
C:\USERS\GUILLAUME\ONEDRIVE - CFAI ALSACE\CPP\RENDU_CPP\PROJETJEUXCPP\PROJETJEUXCPP\DEBUG\TOKENCONNECT4.OBJ
C:\USERS\GUILLAUME\ONEDRIVE - CFAI ALSACE\CPP\RENDU_CPP\PROJETJEUXCPP\PROJETJEUXCPP\DEBUG\TOKENTICTACTOC.OBJ
C:\USERS\GUILLAUME\ONEDRIVE - CFAI ALSACE\CPP\RENDU_CPP\PROJETJEUXCPP\PROJETJEUXCPP\DEBUG\TOKENTICTACTOE.OBJ
C:\WINDOWS\SYSTEM32\TZRES.DLL
C:\WINDOWS\GLOBALIZATION\SORTING\SORTDEFAULT.NLS
C:\PROGRAM FILES (X86)\MICROSOFT VISUAL STUDIO\2017\COMMUNITY\VC\TOOLS\MSVC\14.16.27023\LIB\X86\MSVCPRTD.LIB
C:\PROGRAM FILES (X86)\MICROSOFT VISUAL STUDIO\2017\COMMUNITY\VC\TOOLS\MSVC\14.16.27023\LIB\X86\MSVCRTD.LIB
C:\PROGRAM FILES (X86)\MICROSOFT VISUAL STUDIO\2017\COMMUNITY\VC\TOOLS\MSVC\14.16.27023\LIB\X86\OLDNAMES.LIB
C:\PROGRAM FILES (X86)\MICROSOFT VISUAL STUDIO\2017\COMMUNITY\VC\TOOLS\MSVC\14.16.27023\LIB\X86\VCRUNTIMED.LIB
C:\PROGRAM FILES (X86)\WINDOWS KITS\10\LIB\10.0.17763.0\UCRT\X86\UCRTD.LIB
C:\PROGRAM FILES (X86)\MICROSOFT VISUAL STUDIO\2017\COMMUNITY\VC\TOOLS\MSVC\14.16.27023\BIN\HOSTX86\X86\MSPDBSRV.EXE
